Chapter 3 Predicting the State House, Part 3 | The PA Election Relational Database
…
## Make sure only Dem or Rep won. If a third party ever won, we'd need to rethink this...
results_with_parties %>%
  group_by(race, office, party_replaced) %>%
  summarise(vote_total = sum(vote_total)) %>%
  group_by(race) %>%
  mutate(rank = rank(-vote_total)) %>%
  filter(rank <= 2) %>%
  group_by(office, party_replaced, rank) %>%
  count() %>%
  spread(rank, n)

## # A tibble: 39 x 4
## # Groups:   office, party_replaced [39]
##    office party_replaced   `1`   `2`
##    <chr>  <chr>          <int> <int>
##  1 GOV    DEM                3     1
##  2 GOV    REP                1     3
##  3 STH    ACT               NA     1
##  4 STH    CON               NA     1
##  5 STH    CST               NA     3
##  6 STH    D/G               NA     1
##  7 STH    DBP               NA     1
##  8 STH    DEM              742   504
##  9 STH    F4B               NA     1
## 10 STH    F89               NA     1
## # ... with 29 more rows
…
