Chapter 2 Predicting the State House, Part 2 | The PA Election Relational Database
…
geography_results %>% 
  inner_join(
    races %>% filter(election == '2012 G')
  ) %>%
  left_join(
    crosswalks[["2012,post2012"]], 
    by = c("GEOID" = "xid")
  ) %>%
  group_by(election, yid, office, party) %>%
  summarise(
    vote_total = sum(vote_total * frac_of_x)
  )

## # A tibble: 7,185 x 5
## # Groups:   election, yid, office [?]
##    election yid                     office party vote_total
##    <chr>    <chr>                   <chr>  <chr>      <dbl>
##  1 2012 G   post2012_001_049_03_049 STH    DEM       15907.
##  2 2012 G   post2012_001_049_03_049 STH    OTH           0 
##  3 2012 G   post2012_001_049_03_049 STS    DEM       13708.
##  4 2012 G   post2012_001_049_03_049 STS    OTH           0 
##  5 2012 G   post2012_001_049_03_049 STS    REP        4480.
##  6 2012 G   post2012_001_049_03_049 USC    DEM       12831.
##  7 2012 G   post2012_001_049_03_049 USC    IND         909.
##  8 2012 G   post2012_001_049_03_049 USC    OTH           0 
##  9 2012 G   post2012_001_049_03_049 USC    REP        4371.
## 10 2012 G   post2012_001_049_03_049 USP    DEM       14046.
## # ... with 7,175 more rows
…
That looks good, but I want to flag something that’s weird. There are some combinations of districts that the shapefiles say shouldn’t exist. Here are some votes that aren’t in our intersections.

## Looks
uspgov_votes %>% filter(!GEOID %in% geography_pops$GEOID)

## # A tibble: 40 x 3
## # Groups:   year [8]
##    year  GEOID                  vote_total
##    <chr> <chr>                       <dbl>
##  1 2002  pre2012_046_017_07_091        430
##  2 2002  pre2012_058_045_12_129       1754
##  3 2002  pre2012_058_045_18_129        106
##  4 2002  pre2012_136_016_15_095       1368
##  5 2002  pre2012_137_016_15_095       1672
##  6 2002  pre2012_175_001_03_101          0
##  7 2004  pre2012_058_045_12_129       2770
##  8 2004  pre2012_058_045_18_129        155
##  9 2004  pre2012_136_016_15_095       2223
## 10 2004  pre2012_137_016_15_095       2889
## # ... with 30 more rows
…
